%YAML 1.1
%TAG !u! tag:unity3d.com,2011:
--- !u!74 &7400000
AnimationClip:
  m_ObjectHideFlags: 0
  m_PrefabParentObject: {fileID: 0}
  m_PrefabInternal: {fileID: 0}
  m_Name: SolWater
  serializedVersion: 4
  m_AnimationType: 2
  m_Compressed: 0
  m_UseHighQualityCurve: 1
  m_RotationCurves: []
  m_CompressedRotationCurves: []
  m_PositionCurves:
  - curve:
      serializedVersion: 2
      m_Curve:
      - time: 0
        value: {x: 5.4000001, y: -1, z: 2.83999991}
        inSlope: {x: -1.04347837, y: .260869563, z: 0}
        outSlope: {x: -1.04347837, y: .260869563, z: 0}
        tangentMode: 0
      - time: 4.98333311
        value: {x: .200000003, y: .300000012, z: 2.83999991}
        inSlope: {x: -.471234143, y: .403162032, z: 0}
        outSlope: {x: -.471234143, y: .403162032, z: 0}
        tangentMode: 126332780
      - time: 9.9333334
        value: {x: .699999988, y: 3, z: 2.83999991}
        inSlope: {x: .648511708, y: .282694012, z: 0}
        outSlope: {x: .648511708, y: .282694012, z: 0}
        tangentMode: 222
      - time: 14.9499998
        value: {x: 6.69999981, y: 3.0999999, z: 2.83999991}
        inSlope: {x: .469293833, y: -.395973802, z: 0}
        outSlope: {x: .469293833, y: -.395973802, z: 0}
        tangentMode: 349365252
      - time: 20
        value: {x: 5.4000001, y: -1, z: 2.83999991}
        inSlope: {x: -.257425666, y: -.811881125, z: 0}
        outSlope: {x: -.257425666, y: -.811881125, z: 0}
        tangentMode: 1188405728
      m_PreInfinity: 2
      m_PostInfinity: 2
    path: 
  m_ScaleCurves: []
  m_FloatCurves: []
  m_PPtrCurves: []
  m_SampleRate: 60
  m_WrapMode: 0
  m_Bounds:
    m_Center: {x: 0, y: 0, z: 0}
    m_Extent: {x: 0, y: 0, z: 0}
  m_ClipBindingConstant:
    genericBindings:
    - path: 0
      attribute: 1
      script: {fileID: 0}
      classID: 4
      customType: 0
      isPPtrCurve: 0
    pptrCurveMapping: []
  m_AnimationClipSettings:
    serializedVersion: 2
    m_StartTime: 0
    m_StopTime: 20
    m_OrientationOffsetY: 0
    m_Level: 0
    m_CycleOffset: 0
    m_LoopTime: 1
    m_LoopBlend: 0
    m_LoopBlendOrientation: 0
    m_LoopBlendPositionY: 0
    m_LoopBlendPositionXZ: 0
    m_KeepOriginalOrientation: 0
    m_KeepOriginalPositionY: 1
    m_KeepOriginalPositionXZ: 0
    m_HeightFromFeet: 0
    m_Mirror: 0
  m_EditorCurves:
  - curve:
      serializedVersion: 2
      m_Curve:
      - time: 0
        value: 5.4000001
        inSlope: -1.04347837
        outSlope: -1.04347837
        tangentMode: 10
      - time: 4.98333311
        value: .200000003
        inSlope: -.471234143
        outSlope: -.471234143
        tangentMode: 10
      - time: 9.9333334
        value: .699999988
        inSlope: .648511708
        outSlope: .648511708
        tangentMode: 10
      - time: 14.9499998
        value: 6.69999981
        inSlope: .469293833
        outSlope: .469293833
        tangentMode: 10
      - time: 20
        value: 5.4000001
        inSlope: -.257425666
        outSlope: -.257425666
        tangentMode: 10
      m_PreInfinity: 2
      m_PostInfinity: 2
    attribute: m_LocalPosition.x
    path: 
    classID: 4
    script: {fileID: 0}
  - curve:
      serializedVersion: 2
      m_Curve:
      - time: 0
        value: -1
        inSlope: .260869563
        outSlope: .260869563
        tangentMode: 10
      - time: 4.98333311
        value: .300000012
        inSlope: .403162032
        outSlope: .403162032
        tangentMode: 10
      - time: 9.9333334
        value: 3
        inSlope: .282694012
        outSlope: .282694012
        tangentMode: 10
      - time: 14.9499998
        value: 3.0999999
        inSlope: -.395973802
        outSlope: -.395973802
        tangentMode: 10
      - time: 20
        value: -1
        inSlope: -.811881125
        outSlope: -.811881125
        tangentMode: 10
      m_PreInfinity: 2
      m_PostInfinity: 2
    attribute: m_LocalPosition.y
    path: 
    classID: 4
    script: {fileID: 0}
  - curve:
      serializedVersion: 2
      m_Curve:
      - time: 0
        value: 2.83999991
        inSlope: 0
        outSlope: 0
        tangentMode: 10
      - time: 4.98333311
        value: 2.83999991
        inSlope: 0
        outSlope: 0
        tangentMode: 10
      - time: 9.9333334
        value: 2.83999991
        inSlope: 0
        outSlope: 0
        tangentMode: 10
      - time: 14.9499998
        value: 2.83999991
        inSlope: 0
        outSlope: 0
        tangentMode: 10
      - time: 20
        value: 2.83999991
        inSlope: 0
        outSlope: 0
        tangentMode: 10
      m_PreInfinity: 2
      m_PostInfinity: 2
    attribute: m_LocalPosition.z
    path: 
    classID: 4
    script: {fileID: 0}
  m_EulerEditorCurves: []
  m_Events: []
