%YAML 1.1
%TAG !u! tag:unity3d.com,2011:
--- !u!74 &7400000
AnimationClip:
  m_ObjectHideFlags: 0
  m_PrefabParentObject: {fileID: 0}
  m_PrefabInternal: {fileID: 0}
  m_Name: Rudolf
  serializedVersion: 4
  m_AnimationType: 2
  m_Compressed: 0
  m_UseHighQualityCurve: 1
  m_RotationCurves: []
  m_CompressedRotationCurves: []
  m_PositionCurves: []
  m_ScaleCurves: []
  m_FloatCurves: []
  m_PPtrCurves:
  - curve:
    - time: 0
      value: {fileID: 21300000, guid: 142dac81a7cd10049959fadc1cd1f89f, type: 3}
    - time: .0833333358
      value: {fileID: 21300000, guid: 01009947ee8af3a4190ce3cc64e7a585, type: 3}
    - time: .166666672
      value: {fileID: 21300000, guid: 608523e7111686b45b65bfe4603d87f9, type: 3}
    - time: .25
      value: {fileID: 21300000, guid: 1e3edd43a1053064e8ffa6272a9d931a, type: 3}
    - time: .333333343
      value: {fileID: 21300000, guid: 4c58462f8bac68744aee9a9a01d9184e, type: 3}
    - time: .416666657
      value: {fileID: 21300000, guid: f3866bd4d2a2ab54695f3833598621cf, type: 3}
    - time: .5
      value: {fileID: 21300000, guid: 31428def6a5e7484b840d0ee2bc7bc14, type: 3}
    attribute: m_Sprite
    path: 
    classID: 212
    script: {fileID: 0}
  m_SampleRate: 12
  m_WrapMode: 0
  m_Bounds:
    m_Center: {x: 0, y: 0, z: 0}
    m_Extent: {x: 0, y: 0, z: 0}
  m_ClipBindingConstant:
    genericBindings:
    - path: 0
      attribute: 0
      script: {fileID: 0}
      classID: 212
      customType: 23
      isPPtrCurve: 1
    pptrCurveMapping:
    - {fileID: 21300000, guid: 142dac81a7cd10049959fadc1cd1f89f, type: 3}
    - {fileID: 21300000, guid: 01009947ee8af3a4190ce3cc64e7a585, type: 3}
    - {fileID: 21300000, guid: 608523e7111686b45b65bfe4603d87f9, type: 3}
    - {fileID: 21300000, guid: 1e3edd43a1053064e8ffa6272a9d931a, type: 3}
    - {fileID: 21300000, guid: 4c58462f8bac68744aee9a9a01d9184e, type: 3}
    - {fileID: 21300000, guid: f3866bd4d2a2ab54695f3833598621cf, type: 3}
    - {fileID: 21300000, guid: 31428def6a5e7484b840d0ee2bc7bc14, type: 3}
  m_AnimationClipSettings:
    serializedVersion: 2
    m_StartTime: 0
    m_StopTime: .583333313
    m_OrientationOffsetY: 0
    m_Level: 0
    m_CycleOffset: 0
    m_LoopTime: 1
    m_LoopBlend: 0
    m_LoopBlendOrientation: 0
    m_LoopBlendPositionY: 0
    m_LoopBlendPositionXZ: 0
    m_KeepOriginalOrientation: 0
    m_KeepOriginalPositionY: 1
    m_KeepOriginalPositionXZ: 0
    m_HeightFromFeet: 0
    m_Mirror: 0
  m_EditorCurves: []
  m_EulerEditorCurves: []
  m_Events: []
