%YAML 1.1
%TAG !u! tag:unity3d.com,2011:
--- !u!21 &2100000
Material:
  serializedVersion: 3
  m_ObjectHideFlags: 0
  m_PrefabParentObject: {fileID: 0}
  m_PrefabInternal: {fileID: 0}
  m_Name: fishes_a
  m_Shader: {fileID: 4, guid: 0000000000000000f000000000000000, type: 0}
  m_ShaderKeywords: []
  m_CustomRenderQueue: -1
  m_SavedProperties:
    serializedVersion: 2
    m_TexEnvs:
      data:
        first:
          name: _MainTex
        second:
          m_Texture: {fileID: 2800000, guid: 4bb6b92bdc450d74395804ef5f38d6cb, type: 3}
          m_Scale: {x: 1, y: 1}
          m_Offset: {x: 0, y: 0}
      data:
        first:
          name: _BumpMap
        second:
          m_Texture: {fileID: 2800000, guid: 3b6c118dc53bb0549be8295a00e6aa1b, type: 3}
          m_Scale: {x: 1, y: 1}
          m_Offset: {x: 0, y: 0}
      data:
        first:
          name: _Cube
        second:
          m_Texture: {fileID: 8900000, guid: 6993f1ee3ff1a4a3a8fec59e7cc67bde, type: 3}
          m_Scale: {x: 1, y: 1}
          m_Offset: {x: 0, y: 0}
      data:
        first:
          name: _Detail
        second:
          m_Texture: {fileID: 0}
          m_Scale: {x: 1, y: 1}
          m_Offset: {x: 0, y: 0}
    m_Floats:
      data:
        first:
          name: _Shininess
        second: 1
    m_Colors:
      data:
        first:
          name: _Color
        second: {r: .686567187, g: .686567187, b: .686567187, a: 1}
      data:
        first:
          name: _SpecColor
        second: {r: .854901969, g: .694117665, b: .43921569, a: 1}
      data:
        first:
          name: _ReflectColor
        second: {r: .597014904, g: .597014904, b: .597014904, a: 0}
--- !u!1002 &2100001
EditorExtensionImpl:
  serializedVersion: 6
