%YAML 1.1
%TAG !u! tag:unity3d.com,2011:
--- !u!74 &7400000
AnimationClip:
  m_ObjectHideFlags: 0
  m_PrefabParentObject: {fileID: 0}
  m_PrefabInternal: {fileID: 0}
  m_Name: tchokes
  serializedVersion: 4
  m_AnimationType: 2
  m_Compressed: 0
  m_UseHighQualityCurve: 1
  m_RotationCurves: []
  m_CompressedRotationCurves: []
  m_PositionCurves:
  - curve:
      serializedVersion: 2
      m_Curve:
      - time: 0
        value: {x: -4.05999994, y: -8.22000027, z: 0}
        inSlope: {x: .131966755, y: .288864285, z: -.00498614972}
        outSlope: {x: .131966755, y: .288864285, z: -.00498614972}
        tangentMode: 0
      - time: 30.083334
        value: {x: -.0900000036, y: .469999999, z: -.150000006}
        inSlope: {x: .131966755, y: .288864285, z: -.00498614972}
        outSlope: {x: .131966755, y: .288864285, z: -.00498614972}
        tangentMode: 0
      m_PreInfinity: 2
      m_PostInfinity: 2
    path: 
  m_ScaleCurves:
  - curve:
      serializedVersion: 2
      m_Curve:
      - time: 0
        value: {x: .0552158579, y: .0552158654, z: .0552158654}
        inSlope: {x: -.00159147556, y: -.00159147568, z: -.00159147568}
        outSlope: {x: -.00159147556, y: -.00159147568, z: -.00159147568}
        tangentMode: 1093664768
      - time: 30.083334
        value: {x: .00733896811, y: .0073389695, z: .0073389695}
        inSlope: {x: -.00159147556, y: -.00159147568, z: -.00159147568}
        outSlope: {x: -.00159147556, y: -.00159147568, z: -.00159147568}
        tangentMode: 4
      m_PreInfinity: 2
      m_PostInfinity: 2
    path: 
  m_FloatCurves: []
  m_PPtrCurves: []
  m_SampleRate: 60
  m_WrapMode: 0
  m_Bounds:
    m_Center: {x: 0, y: 0, z: 0}
    m_Extent: {x: 0, y: 0, z: 0}
  m_ClipBindingConstant:
    genericBindings:
    - path: 0
      attribute: 1
      script: {fileID: 0}
      classID: 4
      customType: 0
      isPPtrCurve: 0
    - path: 0
      attribute: 3
      script: {fileID: 0}
      classID: 4
      customType: 0
      isPPtrCurve: 0
    pptrCurveMapping: []
  m_AnimationClipSettings:
    serializedVersion: 2
    m_StartTime: 0
    m_StopTime: 30.083334
    m_OrientationOffsetY: 0
    m_Level: 0
    m_CycleOffset: 0
    m_LoopTime: 1
    m_LoopBlend: 0
    m_LoopBlendOrientation: 0
    m_LoopBlendPositionY: 0
    m_LoopBlendPositionXZ: 0
    m_KeepOriginalOrientation: 0
    m_KeepOriginalPositionY: 1
    m_KeepOriginalPositionXZ: 0
    m_HeightFromFeet: 0
    m_Mirror: 0
  m_EditorCurves:
  - curve:
      serializedVersion: 2
      m_Curve:
      - time: 0
        value: -4.05999994
        inSlope: .131966755
        outSlope: .131966755
        tangentMode: 10
      - time: 30.083334
        value: -.0900000036
        inSlope: .131966755
        outSlope: .131966755
        tangentMode: 10
      m_PreInfinity: 2
      m_PostInfinity: 2
    attribute: m_LocalPosition.x
    path: 
    classID: 4
    script: {fileID: 0}
  - curve:
      serializedVersion: 2
      m_Curve:
      - time: 0
        value: -8.22000027
        inSlope: .288864285
        outSlope: .288864285
        tangentMode: 10
      - time: 30.083334
        value: .469999999
        inSlope: .288864285
        outSlope: .288864285
        tangentMode: 10
      m_PreInfinity: 2
      m_PostInfinity: 2
    attribute: m_LocalPosition.y
    path: 
    classID: 4
    script: {fileID: 0}
  - curve:
      serializedVersion: 2
      m_Curve:
      - time: 0
        value: 0
        inSlope: -.00498614972
        outSlope: -.00498614972
        tangentMode: 10
      - time: 30.083334
        value: -.150000006
        inSlope: -.00498614972
        outSlope: -.00498614972
        tangentMode: 10
      m_PreInfinity: 2
      m_PostInfinity: 2
    attribute: m_LocalPosition.z
    path: 
    classID: 4
    script: {fileID: 0}
  - curve:
      serializedVersion: 2
      m_Curve:
      - time: 0
        value: .0552158579
        inSlope: -.00159147556
        outSlope: -.00159147556
        tangentMode: 10
      - time: 30.083334
        value: .00733896811
        inSlope: -.00159147556
        outSlope: -.00159147556
        tangentMode: 10
      m_PreInfinity: 2
      m_PostInfinity: 2
    attribute: m_LocalScale.x
    path: 
    classID: 4
    script: {fileID: 0}
  - curve:
      serializedVersion: 2
      m_Curve:
      - time: 0
        value: .0552158654
        inSlope: -.00159147568
        outSlope: -.00159147568
        tangentMode: 10
      - time: 30.083334
        value: .0073389695
        inSlope: -.00159147568
        outSlope: -.00159147568
        tangentMode: 10
      m_PreInfinity: 2
      m_PostInfinity: 2
    attribute: m_LocalScale.y
    path: 
    classID: 4
    script: {fileID: 0}
  - curve:
      serializedVersion: 2
      m_Curve:
      - time: 0
        value: .0552158654
        inSlope: -.00159147568
        outSlope: -.00159147568
        tangentMode: 10
      - time: 30.083334
        value: .0073389695
        inSlope: -.00159147568
        outSlope: -.00159147568
        tangentMode: 10
      m_PreInfinity: 2
      m_PostInfinity: 2
    attribute: m_LocalScale.z
    path: 
    classID: 4
    script: {fileID: 0}
  m_EulerEditorCurves: []
  m_Events: []
